   0.100000E-02   0.999999E-03   0.200000E-05
   0.176473E-01   0.176436E-01   0.622723E-03
   0.368940E-01   0.368605E-01   0.271986E-02
   0.475717E-01   0.475000E-01   0.451931E-02
   0.587984E-01   0.586631E-01   0.689860E-02
   0.704998E-01   0.702667E-01   0.990758E-02
   0.826187E-01   0.822437E-01   0.135897E-01
   0.951086E-01   0.945371E-01   0.179826E-01
   0.107931E+00   0.107097E+00   0.231181E-01
   0.121052E+00   0.119877E+00   0.290226E-01
   0.134443E+00   0.132835E+00   0.357174E-01
   0.148077E+00   0.145931E+00   0.432181E-01
   0.161930E+00   0.159129E+00   0.515353E-01
   0.175979E+00   0.172391E+00   0.606744E-01
   0.190205E+00   0.185683E+00   0.706354E-01
   0.204586E+00   0.198972E+00   0.814139E-01
   0.219106E+00   0.212226E+00   0.930001E-01
   0.233746E+00   0.225415E+00   0.105380E+00
   0.248491E+00   0.238510E+00   0.118535E+00
   0.263324E+00   0.251483E+00   0.132443E+00
   0.278232E+00   0.264308E+00   0.147078E+00
   0.293200E+00   0.276960E+00   0.162409E+00
   0.308215E+00   0.289418E+00   0.178406E+00
   0.323266E+00   0.301659E+00   0.195032E+00
   0.338342E+00   0.313665E+00   0.212252E+00
   0.353431E+00   0.325418E+00   0.230026E+00
   0.368524E+00   0.336903E+00   0.248314E+00
   0.383614E+00   0.348104E+00   0.267075E+00
   0.398691E+00   0.359011E+00   0.286269E+00
   0.413750E+00   0.369611E+00   0.305853E+00
   0.428783E+00   0.379897E+00   0.325786E+00
   0.443784E+00   0.389860E+00   0.346028E+00
   0.458751E+00   0.399494E+00   0.366536E+00
   0.473677E+00   0.408795E+00   0.387273E+00
   0.488559E+00   0.417758E+00   0.408199E+00
   0.503395E+00   0.426382E+00   0.429277E+00
   0.518181E+00   0.434664E+00   0.450470E+00
   0.532916E+00   0.442605E+00   0.471743E+00
   0.547599E+00   0.450205E+00   0.493063E+00
   0.562227E+00   0.457465E+00   0.514398E+00
   0.576801E+00   0.464387E+00   0.535717E+00
   0.591320E+00   0.470973E+00   0.556991E+00
   0.605783E+00   0.477227E+00   0.578192E+00
   0.620191E+00   0.483152E+00   0.599294E+00
   0.634545E+00   0.488753E+00   0.620272E+00
   0.648844E+00   0.494034E+00   0.641102E+00
   0.663090E+00   0.499000E+00   0.661764E+00
   0.677284E+00   0.503655E+00   0.682235E+00
   0.691426E+00   0.508006E+00   0.702497E+00
   0.705519E+00   0.512057E+00   0.722531E+00
   0.719563E+00   0.515815E+00   0.742322E+00
   0.733560E+00   0.519284E+00   0.761852E+00
   0.747512E+00   0.522472E+00   0.781109E+00
   0.761420E+00   0.525385E+00   0.800077E+00
   0.775287E+00   0.528027E+00   0.818746E+00
   0.789115E+00   0.530406E+00   0.837103E+00
   0.802904E+00   0.532528E+00   0.855138E+00
   0.816658E+00   0.534398E+00   0.872841E+00
   0.830379E+00   0.536023E+00   0.890205E+00
   0.844068E+00   0.537410E+00   0.907221E+00
   0.857729E+00   0.538563E+00   0.923882E+00
   0.871363E+00   0.539489E+00   0.940182E+00
   0.884973E+00   0.540195E+00   0.956115E+00
   0.898562E+00   0.540685E+00   0.971678E+00
   0.912132E+00   0.540966E+00   0.986864E+00
   0.925686E+00   0.541043E+00   0.100167E+01
   0.939227E+00   0.540922E+00   0.101610E+01
   0.952758E+00   0.540609E+00   0.103014E+01
   0.966283E+00   0.540109E+00   0.104380E+01
   0.979806E+00   0.539426E+00   0.105707E+01
   0.993330E+00   0.538567E+00   0.106995E+01
   0.100686E+01   0.537536E+00   0.108245E+01
   0.102040E+01   0.536337E+00   0.109455E+01
   0.103394E+01   0.534976E+00   0.110627E+01
   0.104751E+01   0.533457E+00   0.111760E+01
   0.106109E+01   0.531785E+00   0.112855E+01
   0.107470E+01   0.529963E+00   0.113911E+01
   0.108834E+01   0.527996E+00   0.114928E+01
   0.110201E+01   0.525888E+00   0.115907E+01
   0.111573E+01   0.523642E+00   0.116848E+01
   0.112949E+01   0.521261E+00   0.117751E+01
   0.114330E+01   0.518748E+00   0.118617E+01
   0.115717E+01   0.516108E+00   0.119445E+01
   0.117111E+01   0.513341E+00   0.120236E+01
   0.118514E+01   0.510450E+00   0.120991E+01
   0.119924E+01   0.507438E+00   0.121708E+01
   0.121345E+01   0.504305E+00   0.122390E+01
   0.122777E+01   0.501051E+00   0.123035E+01
   0.124222E+01   0.497678E+00   0.123645E+01
   0.125682E+01   0.494184E+00   0.124220E+01
   0.127159E+01   0.490567E+00   0.124760E+01
   0.128655E+01   0.486824E+00   0.125265E+01
   0.130174E+01   0.482950E+00   0.125735E+01
   0.131720E+01   0.478937E+00   0.126171E+01
   0.133299E+01   0.474773E+00   0.126573E+01
   0.134918E+01   0.470441E+00   0.126942E+01
   0.136587E+01   0.465914E+00   0.127276E+01
   0.138325E+01   0.461147E+00   0.127576E+01
   0.140161E+01   0.456060E+00   0.127843E+01
   0.142158E+01   0.450475E+00   0.128077E+01
   0.144536E+01   0.443771E+00   0.128282E+01
   0.146660E+01   0.437750E+00   0.128401E+01
   0.148434E+01   0.432707E+00   0.128457E+01
   0.150205E+01   0.427666E+00   0.128475E+01
   0.151868E+01   0.422930E+00   0.128459E+01
   0.153453E+01   0.418423E+00   0.128417E+01
   0.154979E+01   0.414091E+00   0.128351E+01
   0.156459E+01   0.409902E+00   0.128266E+01
   0.157899E+01   0.405837E+00   0.128163E+01
   0.159307E+01   0.401881E+00   0.128045E+01
   0.160686E+01   0.398023E+00   0.127913E+01
   0.162040E+01   0.394254E+00   0.127769E+01
   0.163371E+01   0.390568E+00   0.127615E+01
   0.164681E+01   0.386960E+00   0.127450E+01
   0.165973E+01   0.383425E+00   0.127276E+01
   0.167247E+01   0.379960E+00   0.127095E+01
   0.168506E+01   0.376561E+00   0.126906E+01
   0.169751E+01   0.373225E+00   0.126710E+01
   0.170982E+01   0.369949E+00   0.126509E+01
   0.172200E+01   0.366732E+00   0.126303E+01
   0.173406E+01   0.363572E+00   0.126091E+01
   0.174602E+01   0.360466E+00   0.125876E+01
   0.175786E+01   0.357413E+00   0.125657E+01
   0.176961E+01   0.354411E+00   0.125434E+01
   0.178127E+01   0.351460E+00   0.125209E+01
   0.179284E+01   0.348556E+00   0.124981E+01
   0.180432E+01   0.345701E+00   0.124751E+01
   0.181573E+01   0.342891E+00   0.124519E+01
   0.182706E+01   0.340126E+00   0.124286E+01
   0.183832E+01   0.337405E+00   0.124052E+01
   0.184950E+01   0.334728E+00   0.123816E+01
   0.186063E+01   0.332092E+00   0.123580E+01
   0.187169E+01   0.329497E+00   0.123343E+01
   0.188269E+01   0.326942E+00   0.123106E+01
   0.189363E+01   0.324427E+00   0.122869E+01
   0.190452E+01   0.321950E+00   0.122632E+01
   0.191535E+01   0.319510E+00   0.122395E+01
   0.192614E+01   0.317108E+00   0.122159E+01
   0.193687E+01   0.314742E+00   0.121923E+01
   0.194756E+01   0.312411E+00   0.121688E+01
   0.195821E+01   0.310115E+00   0.121454E+01
   0.196881E+01   0.307853E+00   0.121221E+01
   0.197937E+01   0.305624E+00   0.120988E+01
   0.198989E+01   0.303428E+00   0.120758E+01
   0.200037E+01   0.301264E+00   0.120528E+01
   0.201082E+01   0.299132E+00   0.120300E+01
   0.202122E+01   0.297031E+00   0.120073E+01
   0.203160E+01   0.294960E+00   0.119848E+01
   0.204194E+01   0.292918E+00   0.119625E+01
   0.205225E+01   0.290906E+00   0.119403E+01
   0.206254E+01   0.288923E+00   0.119183E+01
   0.207279E+01   0.286968E+00   0.118965E+01
   0.208301E+01   0.285040E+00   0.118748E+01
   0.209321E+01   0.283139E+00   0.118534E+01
   0.210338E+01   0.281265E+00   0.118321E+01
   0.211352E+01   0.279417E+00   0.118111E+01
   0.212364E+01   0.277595E+00   0.117902E+01
   0.213374E+01   0.275798E+00   0.117696E+01
   0.214381E+01   0.274025E+00   0.117492E+01
   0.215386E+01   0.272277E+00   0.117290E+01
   0.216390E+01   0.270553E+00   0.117090E+01
   0.217391E+01   0.268852E+00   0.116892E+01
   0.219387E+01   0.265518E+00   0.116503E+01
   0.221377E+01   0.262273E+00   0.116122E+01
   0.223360E+01   0.259113E+00   0.115751E+01
   0.225336E+01   0.256036E+00   0.115388E+01
   0.227307E+01   0.253038E+00   0.115035E+01
   0.229273E+01   0.250116E+00   0.114690E+01
   0.231234E+01   0.247269E+00   0.114354E+01
   0.233191E+01   0.244492E+00   0.114027E+01
   0.235143E+01   0.241785E+00   0.113708E+01
   0.237092E+01   0.239144E+00   0.113398E+01
   0.239038E+01   0.236566E+00   0.113097E+01
   0.240980E+01   0.234051E+00   0.112803E+01
   0.242920E+01   0.231595E+00   0.112518E+01
   0.244857E+01   0.229197E+00   0.112241E+01
   0.246792E+01   0.226855E+00   0.111972E+01
   0.248725E+01   0.224566E+00   0.111710E+01
   0.250656E+01   0.222329E+00   0.111456E+01
   0.252586E+01   0.220142E+00   0.111210E+01
   0.254514E+01   0.218004E+00   0.110970E+01
   0.256441E+01   0.215913E+00   0.110738E+01
   0.258367E+01   0.213866E+00   0.110512E+01
   0.260292E+01   0.211864E+00   0.110293E+01
   0.262217E+01   0.209903E+00   0.110080E+01
   0.264141E+01   0.207984E+00   0.109874E+01
   0.266064E+01   0.206104E+00   0.109674E+01
   0.267987E+01   0.204262E+00   0.109480E+01
   0.269910E+01   0.202458E+00   0.109291E+01
   0.271833E+01   0.200689E+00   0.109108E+01
   0.273756E+01   0.198955E+00   0.108930E+01
   0.275678E+01   0.197255E+00   0.108758E+01
   0.277601E+01   0.195587E+00   0.108590E+01
   0.279524E+01   0.193951E+00   0.108428E+01
   0.281447E+01   0.192346E+00   0.108270E+01
   0.283370E+01   0.190770E+00   0.108117E+01
   0.285293E+01   0.189223E+00   0.107968E+01
   0.287217E+01   0.187704E+00   0.107824E+01
   0.289141E+01   0.186213E+00   0.107683E+01
   0.291065E+01   0.184747E+00   0.107547E+01
   0.292990E+01   0.183308E+00   0.107415E+01
   0.294915E+01   0.181893E+00   0.107286E+01
   0.296840E+01   0.180502E+00   0.107161E+01
   0.298766E+01   0.179135E+00   0.107039E+01
   0.300692E+01   0.177791E+00   0.106920E+01
   0.302618E+01   0.176469E+00   0.106805E+01
   0.304545E+01   0.175169E+00   0.106693E+01
   0.306471E+01   0.173889E+00   0.106584E+01
   0.308399E+01   0.172631E+00   0.106478E+01
   0.310326E+01   0.171392E+00   0.106375E+01
   0.312253E+01   0.170173E+00   0.106274E+01
   0.314181E+01   0.168973E+00   0.106176E+01
   0.316109E+01   0.167792E+00   0.106081E+01
   0.318037E+01   0.166628E+00   0.105988E+01
   0.319965E+01   0.165483E+00   0.105897E+01
   0.321893E+01   0.164354E+00   0.105809E+01
   0.323821E+01   0.163242E+00   0.105723E+01
   0.325749E+01   0.162147E+00   0.105639E+01
   0.327677E+01   0.161068E+00   0.105557E+01
   0.329605E+01   0.160004E+00   0.105477E+01
   0.331533E+01   0.158956E+00   0.105398E+01
   0.333461E+01   0.157923E+00   0.105322E+01
   0.335388E+01   0.156904E+00   0.105248E+01
   0.337315E+01   0.155900E+00   0.105175E+01
   0.339242E+01   0.154910E+00   0.105104E+01
   0.341169E+01   0.153933E+00   0.105034E+01
   0.343095E+01   0.152970E+00   0.104966E+01
   0.345021E+01   0.152020E+00   0.104900E+01
   0.346947E+01   0.151082E+00   0.104835E+01
   0.348872E+01   0.150158E+00   0.104772E+01
   0.350797E+01   0.149245E+00   0.104710E+01
   0.352721E+01   0.148345E+00   0.104649E+01
   0.354645E+01   0.147456E+00   0.104589E+01
   0.356568E+01   0.146579E+00   0.104531E+01
   0.358490E+01   0.145714E+00   0.104474E+01
   0.360412E+01   0.144859E+00   0.104418E+01
   0.362334E+01   0.144016E+00   0.104364E+01
   0.364254E+01   0.143183E+00   0.104310E+01
   0.366174E+01   0.142360E+00   0.104257E+01
   0.368094E+01   0.141548E+00   0.104206E+01
   0.370012E+01   0.140746E+00   0.104156E+01
   0.371930E+01   0.139954E+00   0.104106E+01
   0.373847E+01   0.139171E+00   0.104058E+01
   0.375763E+01   0.138398E+00   0.104010E+01
   0.377679E+01   0.137635E+00   0.103963E+01
   0.379594E+01   0.136880E+00   0.103918E+01
   0.381508E+01   0.136135E+00   0.103873E+01
   0.383421E+01   0.135398E+00   0.103829E+01
   0.385333E+01   0.134670E+00   0.103786E+01
   0.387244E+01   0.133951E+00   0.103743E+01
   0.389155E+01   0.133239E+00   0.103701E+01
   0.391064E+01   0.132537E+00   0.103661E+01
   0.392973E+01   0.131842E+00   0.103620E+01
   0.394880E+01   0.131155E+00   0.103581E+01
   0.396787E+01   0.130476E+00   0.103542E+01
   0.398693E+01   0.129804E+00   0.103504E+01
   0.400598E+01   0.129140E+00   0.103467E+01
   0.402502E+01   0.128484E+00   0.103430E+01
   0.404405E+01   0.127835E+00   0.103394E+01
   0.406307E+01   0.127192E+00   0.103358E+01
   0.408208E+01   0.126557E+00   0.103323E+01
   0.410108E+01   0.125929E+00   0.103289E+01
   0.412007E+01   0.125308E+00   0.103255E+01
   0.413905E+01   0.124693E+00   0.103222E+01
   0.415802E+01   0.124085E+00   0.103189E+01
   0.417698E+01   0.123483E+00   0.103157E+01
   0.419593E+01   0.122888E+00   0.103126E+01
   0.421487E+01   0.122299E+00   0.103095E+01
   0.423380E+01   0.121716E+00   0.103064E+01
   0.425272E+01   0.121139E+00   0.103034E+01
   0.427163E+01   0.120568E+00   0.103004E+01
   0.429053E+01   0.120003E+00   0.102975E+01
   0.430942E+01   0.119444E+00   0.102947E+01
   0.432830E+01   0.118890E+00   0.102918E+01
   0.434717E+01   0.118342E+00   0.102891E+01
   0.436602E+01   0.117800E+00   0.102863E+01
   0.438487E+01   0.117263E+00   0.102836E+01
   0.440371E+01   0.116731E+00   0.102810E+01
   0.442253E+01   0.116204E+00   0.102783E+01
   0.444135E+01   0.115683E+00   0.102758E+01
   0.446015E+01   0.115167E+00   0.102732E+01
   0.447895E+01   0.114656E+00   0.102707E+01
   0.449773E+01   0.114149E+00   0.102683E+01
   0.451651E+01   0.113648E+00   0.102658E+01
   0.453527E+01   0.113151E+00   0.102635E+01
   0.455402E+01   0.112660E+00   0.102611E+01
   0.457276E+01   0.112173E+00   0.102588E+01
   0.459150E+01   0.111690E+00   0.102565E+01
   0.461022E+01   0.111212E+00   0.102542E+01
   0.462893E+01   0.110738E+00   0.102520E+01
   0.464763E+01   0.110269E+00   0.102498E+01
   0.466632E+01   0.109804E+00   0.102476E+01
   0.468499E+01   0.109344E+00   0.102455E+01
   0.470366E+01   0.108887E+00   0.102434E+01
   0.472232E+01   0.108435E+00   0.102413E+01
   0.474097E+01   0.107987E+00   0.102393E+01
   0.475960E+01   0.107543E+00   0.102373E+01
   0.477823E+01   0.107103E+00   0.102353E+01
   0.479684E+01   0.106667E+00   0.102333E+01
   0.481545E+01   0.106235E+00   0.102314E+01
   0.483404E+01   0.105806E+00   0.102294E+01
   0.485263E+01   0.105382E+00   0.102276E+01
   0.487120E+01   0.104961E+00   0.102257E+01
   0.488977E+01   0.104543E+00   0.102239E+01
   0.490832E+01   0.104130E+00   0.102220E+01
   0.492686E+01   0.103720E+00   0.102203E+01
   0.494539E+01   0.103313E+00   0.102185E+01
   0.496392E+01   0.102910E+00   0.102167E+01
   0.498243E+01   0.102511E+00   0.102150E+01
   0.500000E+01   0.102134E+00   0.102134E+01
